{"results":[{"vote_count":160,"id":353081,"video":false,"vote_average":7.5,"title":"Mission: Impossible - Fallout","popularity":383.613,"poster_path":"\/AkJQpZp9WoNdj7pLYSj1L0RcMMN.jpg","original_language":"en","original_title":"Mission: Impossible - Fallout","genre_ids":[12,28,53],"backdrop_path":"\/5qxePyMYDisLe8rJiBYX8HKEyv2.jpg","adult":false,"overview":"When an IMF mission ends badly, the world is faced with dire consequences. As Ethan Hunt takes it upon himself to fulfil his original briefing, the CIA begin to question his loyalty and his motives. The IMF team find themselves in a race against time, hunted by assassins while trying to prevent a global catastrophe.","release_date":"2018-07-25"},{"vote_count":2190,"id":351286,"video":false,"vote_average":6.6,"title":"Jurassic World: Fallen Kingdom","popularity":245.686,"poster_path":"\/c9XxwwhPHdaImA2f1WEfEsbhaFB.jpg","original_language":"en","original_title":"Jurassic World: Fallen Kingdom","genre_ids":[28,12,878],"backdrop_path":"\/3s9O5af2xWKWR5JzP2iJZpZeQQg.jpg","adult":false,"overview":"Several years after the demise of Jurassic World, a volcanic eruption threatens the remaining dinosaurs on the island of Isla Nublar. Claire Dearing, the former park manager and founder of the Dinosaur Protection Group, recruits Owen Grady to help prevent the extinction of the dinosaurs once again.","release_date":"2018-06-06"},{"vote_count":871,"id":363088,"video":false,"vote_average":7,"title":"Ant-Man and the Wasp","popularity":121.528,"poster_path":"\/rv1AWImgx386ULjcf62VYaW8zSt.jpg","original_language":"en","original_title":"Ant-Man and the Wasp","genre_ids":[28,12,14,35,878],"backdrop_path":"\/6P3c80EOm7BodndGBUAJHHsHKrp.jpg","adult":false,"overview":"As Scott Lang awaits expiration of his term of house detention, Hope van Dyne and Dr. Hank Pym involve him in a scheme to rescue Mrs. van Dyne from the micro-universe into which she has fallen, while two groups of schemers converge on them with intentions of stealing Dr. Pym's inventions.","release_date":"2018-07-04"},{"vote_count":367,"id":442249,"video":false,"vote_average":6.1,"title":"The First Purge","popularity":80.775,"poster_path":"\/2slvblTroiT1lY9bYLK7Amigo1k.jpg","original_language":"en","original_title":"The First Purge","genre_ids":[28,27,878,53],"backdrop_path":"\/dnaitaoCh8MftfYEVnprcuYExZp.jpg","adult":false,"overview":"To push the crime rate below one percent for the rest of the year, the New Founding Fathers of America test a sociological theory that vents aggression for one night in one isolated community. But when the violence of oppressors meets the rage of the others, the contagion will explode from the trial-city borders and spread across the nation.","release_date":"2018-07-04"},{"vote_count":2391,"id":447332,"video":false,"vote_average":7.2,"title":"A Quiet Place","popularity":80.34,"poster_path":"\/nAU74GmpUk7t5iklEp3bufwDq4n.jpg","original_language":"en","original_title":"A Quiet Place","genre_ids":[18,27,53,878],"backdrop_path":"\/tZmr0ozxSc2GasRuddtlRkf7f68.jpg","adult":false,"overview":"A family is forced to live in silence while hiding from creatures that hunt by sound.","release_date":"2018-04-03"},{"vote_count":1412,"id":260513,"video":false,"vote_average":7.7,"title":"Incredibles 2","popularity":78.88,"poster_path":"\/x1txcDXkcM65gl7w20PwYSxAYah.jpg","original_language":"en","original_title":"Incredibles 2","genre_ids":[28,12,16,10751],"backdrop_path":"\/mabuNsGJgRuCTuGqjFkWe1xdu19.jpg","adult":false,"overview":"Elastigirl springs into action to save the day, while Mr. Incredible faces his greatest challenge yet – taking care of the problems of his three children.","release_date":"2018-06-14"},{"vote_count":11,"id":493006,"video":false,"vote_average":5,"title":"Detective Conan: Zero the Enforcer","popularity":67.857,"poster_path":"\/mMWV5MXn2pkDnnI4vWpy3dRWdNC.jpg","original_language":"ja","original_title":"名探偵コナン ゼロの執行人","genre_ids":[16,80,9648,28,18],"backdrop_path":"\/kEqeponciiz6TyuKWtnKSzXzbGa.jpg","adult":false,"overview":"There is a sudden explosion at Tokyo Summit's giant Edge of Ocean facility. The shadow of Tōru Amuro, who works for the National Police Agency Security Bureau as Zero, appears at the site. In addition, the \"triple-face\" character is known as Rei Furuya as a detective and Kogorō Mōri's apprentice, and he is also known as Bourbon as a Black Organization member. Kogorō is arrested as a suspect in the case of the explosion. Conan conducts an investigation to prove Kogorō's innocence, but Amuro gets in his way.","release_date":"2018-04-13"},{"vote_count":7,"id":476292,"video":false,"vote_average":5.7,"title":"Maquia: When the Promised Flower Blooms","popularity":63.135,"poster_path":"\/vOrK1n6VgVCFBwgcq5tMoPCqa47.jpg","original_language":"ja","original_title":"さよならの朝に約束の花をかざろう","genre_ids":[16],"backdrop_path":"\/cfbjFQ14hSTgXChBEvaEjFiUaKb.jpg","adult":false,"overview":"A story of encounters and partings interwoven between people; this is a human drama with feelings that touch one's heart gradually, which everyone has experienced at least once.","release_date":"2018-02-24"},{"vote_count":207,"id":400155,"video":false,"vote_average":7,"title":"Hotel Transylvania 3: Summer Vacation","popularity":51.548,"poster_path":"\/gjAFM4xhA5vyLxxKMz38ujlUfDL.jpg","original_language":"en","original_title":"Hotel Transylvania 3: Summer Vacation","genre_ids":[10751,14,35,16],"backdrop_path":"\/m03jul0YdVEOFXEQVUv6pOVQYGL.jpg","adult":false,"overview":"Dracula, Mavis, Johnny and the rest of the Drac Pack take a vacation on a luxury Monster Cruise Ship, where Dracula falls in love with the ship's captain, Ericka, who's secretly a descendant of Abraham Van Helsing, the notorious monster slayer.","release_date":"2018-06-30"},{"vote_count":229,"id":447200,"video":false,"vote_average":6.2,"title":"Skyscraper","popularity":51.453,"poster_path":"\/3NL1FiTEhU4SWOuWk8lkVCbmnYm.jpg","original_language":"en","original_title":"Skyscraper","genre_ids":[28,53,18],"backdrop_path":"\/oMKFQmoVgB69fyXfSMu0lGlHJP2.jpg","adult":false,"overview":"Framed and on the run, a former FBI agent must save his family from a blazing fire in the world's tallest building.","release_date":"2018-07-11"},{"vote_count":134,"id":400579,"video":false,"vote_average":7,"title":"Tully","popularity":49.074,"poster_path":"\/wDI4YXBXolMYi15Qx2kClvdSERM.jpg","original_language":"en","original_title":"Tully","genre_ids":[35,18],"backdrop_path":"\/h4Z6IUpTyD9ViV7NLmbAEbgM1G0.jpg","adult":false,"overview":"Marlo, a mother of three including a newborn, is gifted a night nanny by her brother. Hesitant to the extravagance at first, Marlo comes to form a bond with the thoughtful, surprising, and sometimes challenging nanny named Tully.","release_date":"2018-05-04"},{"vote_count":73,"id":345887,"video":false,"vote_average":6.2,"title":"The Equalizer 2","popularity":46.744,"poster_path":"\/cQvc9N6JiMVKqol3wcYrGshsIdZ.jpg","original_language":"en","original_title":"The Equalizer 2","genre_ids":[53,28,80],"backdrop_path":"\/a24i4Qw6qFTtkFLQsncv8WPwevj.jpg","adult":false,"overview":"Robert McCall returns to deliver his special brand of vigilante justice -- but how far will he go when it's someone he loves?","release_date":"2018-07-19"},{"vote_count":136,"id":458423,"video":false,"vote_average":7.7,"title":"Mamma Mia! Here We Go Again","popularity":38.772,"poster_path":"\/aWicerX4Y7n7tUwRAVHsVcBBpj2.jpg","original_language":"en","original_title":"Mamma Mia! Here We Go Again","genre_ids":[35,10749,10402],"backdrop_path":"\/8HKwxHZ23sW8wz4yb28IWnAM1M6.jpg","adult":false,"overview":"On the Greek island of Kalokairi, the daughter of Donna Sheridan, Sophie, finds out more about her mother's past while seeking guidance on how to handle her pregnancy.","release_date":"2018-07-18"},{"vote_count":123,"id":454619,"video":false,"vote_average":6,"title":"Overboard","popularity":37.681,"poster_path":"\/qauHzSQJdo9VYX4NKn9PdWnvXOV.jpg","original_language":"en","original_title":"Overboard","genre_ids":[10749,35],"backdrop_path":"\/1c9UOyJP0FnhhdNoEvhI3ODcE3i.jpg","adult":false,"overview":"A spoiled, wealthy yacht owner is thrown overboard and becomes the target of revenge from his mistreated employee. A remake of the 1987 comedy.","release_date":"2018-05-03"},{"vote_count":671,"id":402900,"video":false,"vote_average":6.8,"title":"Ocean's Eight","popularity":35.68,"poster_path":"\/MvYpKlpFukTivnlBhizGbkAe3v.jpg","original_language":"en","original_title":"Ocean's Eight","genre_ids":[80,35,28,53],"backdrop_path":"\/zBIfBeStaDdDdhBrSx8InhgFUVa.jpg","adult":false,"overview":"Debbie Ocean, a criminal mastermind, gathers a crew of seven other female thieves to pull off the heist of the century at New York's annual Met Gala.","release_date":"2018-06-07"},{"vote_count":748,"id":460019,"video":false,"vote_average":6.1,"title":"Truth or Dare","popularity":31.534,"poster_path":"\/kdkNaQYZ7dhM80LsnAGKpH8ca2g.jpg","original_language":"en","original_title":"Truth or Dare","genre_ids":[53,27],"backdrop_path":"\/eQ5xu2pQ5Kergubto5PbbUzey28.jpg","adult":false,"overview":"A harmless game of \"Truth or Dare\" among friends turns deadly when someone—or something—begins to punish those who tell a lie—or refuse the dare.","release_date":"2018-04-12"},{"vote_count":1369,"id":449176,"video":false,"vote_average":8.2,"title":"Love, Simon","popularity":30.989,"poster_path":"\/5YUYg5q7QfC4IoNwNUtiwdiYKPr.jpg","original_language":"en","original_title":"Love, Simon","genre_ids":[35,18,10749],"backdrop_path":"\/rqMEeajyzSF4PpJtdCB816Iz8Vr.jpg","adult":false,"overview":"Everyone deserves a great love story. But for seventeen-year old Simon Spier it's a little more complicated: he's yet to tell his family or friends he's gay and he doesn't know the identity of the anonymous classmate he's fallen for online.","release_date":"2018-02-16"},{"vote_count":391,"id":437557,"video":false,"vote_average":6.2,"title":"Blockers","popularity":30.337,"poster_path":"\/uvlUQXg0AlpGzKukO11K7QtW3Yu.jpg","original_language":"en","original_title":"Blockers","genre_ids":[35],"backdrop_path":"\/bUcHY7CrYWieikW8fFkL3Dxnt4H.jpg","adult":false,"overview":"When three parents discover their daughters’ pact to lose their virginity at prom, they launch a covert one-night operation to stop the teens from sealing the deal.","release_date":"2018-03-14"},{"vote_count":269,"id":460668,"video":false,"vote_average":6.3,"title":"I Feel Pretty","popularity":30.116,"poster_path":"\/iuPs45XIxfARKPLEkCGXWUrBrTR.jpg","original_language":"en","original_title":"I Feel Pretty","genre_ids":[35],"backdrop_path":"\/3Zb4Du20mvKl0jlOtQ6lCFhpiiT.jpg","adult":false,"overview":"A head injury causes a woman to develop an extraordinary amount of confidence and believe she's drop dead gorgeous.","release_date":"2018-04-19"},{"vote_count":684,"id":399174,"video":false,"vote_average":7.9,"title":"Isle of Dogs","popularity":29.235,"poster_path":"\/rSluCePdXXtNiQeE6Na5yRGamhL.jpg","original_language":"en","original_title":"Isle of Dogs","genre_ids":[12,35,16],"backdrop_path":"\/5YtXsLG9ncjjFyGZjoeV31CGf01.jpg","adult":false,"overview":"In the future, an outbreak of canine flu leads the mayor of a Japanese city to banish all dogs to an island that's a garbage dump. The outcasts must soon embark on an epic journey when a 12-year-old boy arrives on the island to find his beloved pet.","release_date":"2018-03-23"}],"page":1,"total_results":798,"dates":{"maximum":"2018-08-03","minimum":"2018-06-16"},"total_pages":40}